{
  "section1": {"files": [
    {
      "type": "animation",
      "key": "animations",
      "url": "assets/atlas/animations.json"
    },
    {
      "type": "multiatlas",
      "key": "character",
      "url": "assets/atlas/character.json",
      "path": "assets/atlas"
    },
    {
      "type": "sceneFile",
      "key": "Level",
      "url": "assets/scene/Level.js"
    }
  ]},
  "meta": {
    "generated": "1550396744538",
    "app": "Phaser Editor",
    "url": "https://phasereditor2d.com",
    "version": "1.0",
    "copyright": "Arian Fornaris (c) 2015,2018"
  }
}